[Event "Fischer Random Rapid 2018"]
[Site "Baerum NOR"]
[Date "2018.02.09"]
[Round "1"]
[White "Carlsen, Magnus"]
[Black "Nakamura, Hikaru"]
[Result "1/2-1/2"]
[Annotator "DF"]
[EventDate "2018.02.09"]
[Variant "chess 960"]
[SetUp "1"]
[FEN "nnqrbbkr/pppppppp/8/8/8/8/PPPPPPPP/NNQRBBKR w HDhd - 0 1"]
[PlyCount "100"]
[EventType "rapid"]
[Source "ChessPublishing"]
[SourceDate "2015.08.21"]

1. c4 c5 2. Nc3 e6 3. Nc2 Nb6 4. e3 d5 5. cxd5 Nxd5 6. d4 cxd4 7. Nxd4 Nc6
8. Nxd5 Rxd5 9. Nf3 Qd8 10. Rxd5 Qxd5 11. a3 Bd6 12. Be2 O-O 13. O-O Ne7
14. Bc3 Ba4 15. Qb1 Rc8 16. Rc1 Ng6 17. h3 b6 18. Bd3 Be7 19. Be4 Qd7 20.
Ne5 Nxe5 21. Bxe5 Rxc1+ 22. Qxc1 Qd1+ 23. Qxd1 Bxd1 24. Bc6 Bb3 25. Kf1 Bf6
26. Bxf6 Bc4+ 27. Ke1 gxf6 28. Kd2 Kf8 29. Kc3 Bf1 30. f4 Ke7 31. Kd4 Kd6
32. Bf3 f5 33. e4 fxe4 34. Kxe4 f5+ 35. Kd4 h6 36. b4 Bb5 37. g4 Bf1 38.
gxf5 exf5 39. h4 Bb5 40. Bd1 Bd7 41. Bb3 Bc8 42. Bc2 Be6 43. Bb1 Bc8 44.
Bd3 Bd7 45. Kc4 Kc6 46. Bf1 Be6+ 47. Kd4 Kd6 48. Bg2 Bc8 49. Bd5 Bd7 50.
Bb7 Be6 1/2-1/2

[Event "Fischer Random Rapid 2018"]
[Site "Baerum NOR"]
[Date "2018.02.09"]
[Round "2"]
[White "Nakamura, Hikaru"]
[Black "Carlsen, Magnus"]
[Result "1/2-1/2"]
[Annotator "DF"]
[EventDate "2018.02.09"]
[Variant "chess 960"]
[SetUp "1"]
[FEN "nnqrbbkr/pppppppp/8/8/8/8/PPPPPPPP/NNQRBBKR w HDhd - 0 1"]
[PlyCount "83"]
[EventType "rapid"]
[Source "ChessPublishing"]
[SourceDate "2015.08.21"]

1. e4 c5 2. d4 cxd4 3. Rxd4 d6 4. c4 b5 5. Nb3 Nc6 6. Rd1 bxc4 7. Bxc4 Nb6
8. Be2 g6 9. Bc3 f6 10. h4 h5 11. Rh3 Bf7 12. Rg3 Ne5 13. Bxe5 dxe5 14. Rc3
Rxd1+ 15. Qxd1 Qa8 16. N1d2 Bh6 17. Rc7 Qb8 18. Qc2 O-O 19. Ba6 Bxd2 20.
Nxd2 Rd8 21. Nf1 Rd7 22. Rxd7 Nxd7 23. Bc4 Qd6 24. Ne3 Qd4 25. b4 Nb6 26.
Bxf7+ Kxf7 27. Qb3+ Kf8 28. Qb1 Nc8 29. Nf1 Nd6 30. Ng3 Nb5 31. a3 Qc4 32.
Qd1 Nd4 33. Qd2 Kg7 34. Kh2 Qc2 35. Qe3 a6 36. f4 exf4 37. Qxd4 fxg3+ 38.
Kxg3 Qb3+ 39. Kh2 Qxa3 40. Qc5 Kf8 41. Qc8+ Kf7 42. Qc4+ 1/2-1/2

[Event "Fischer Random Rapid 2018"]
[Site "Baerum NOR"]
[Date "2018.02.10"]
[Round "3"]
[White "Nakamura, Hikaru"]
[Black "Carlsen, Magnus"]
[Result "1/2-1/2"]
[Annotator "DF"]
[EventDate "2018.02.09"]
[Variant "chess 960"]
[SetUp "1"]
[FEN "rbqnnkbr/pppppppp/8/8/8/8/PPPPPPPP/RBQNNKBR w HAha - 0 1"]
[PlyCount "87"]
[EventType "rapid"]
[Source "ChessPublishing"]
[SourceDate "2015.08.21"]

1. f3 c6 2. c4 e5 3. d4 d6 4. Bd3 Ne6 5. e3 Nf6 6. Qc3 exd4 7. exd4 h5 8.
Be3 Bh7 9. d5 cxd5 10. cxd5 Qxc3 11. Nxc3 Nc5 12. Bxh7 Rxh7 13. Rc1 a6 14.
Bg5 h4 15. Bxf6 gxf6 16. Ne4 Kg7 17. Nxc5 dxc5 18. Rxc5 Ba7 19. Rc3 Rh5 20.
Rd3 Re5 21. f4 Re4 22. Nf3 Rc8 23. Rc3 Rce8 24. Rc2 Rxf4 25. d6 Rd8 26. Rd2
Re4 27. d7 f5 28. g3 hxg3 29. hxg3 Re7 30. Rdh2 Rexd7 31. Rh7+ Kf6 32. Kg2
Be3 33. Rf1 Rg8 34. Kh3 Rd5 35. Nh4 Rg5 36. g4 f4 37. Ng2 Rd3 38. Kh4 Rg7
39. g5+ Rxg5 40. Nxe3 Rxe3 41. Rxf4+ Kg6 42. Rhxf7 Rh5+ 43. Kg4 Rg5+ 44.
Kh4 1/2-1/2

[Event "Fischer Random Rapid 2018"]
[Site "Baerum NOR"]
[Date "2018.02.10"]
[Round "4"]
[White "Carlsen, Magnus"]
[Black "Nakamura, Hikaru"]
[Result "1-0"]
[Annotator "DF"]
[EventDate "2018.02.09"]
[Variant "chess 960"]
[SetUp "1"]
[FEN "rbqnnkbr/pppppppp/8/8/8/8/PPPPPPPP/RBQNNKBR w HAha - 0 1"]
[PlyCount "135"]
[EventType "rapid"]
[Source "ChessPublishing"]
[SourceDate "2015.08.21"]

1. d4 c5 2. dxc5 Qxc5 3. f3 Qc7 4. Qd2 f5 5. c4 Bxc4 6. Bxf5 Nd6 7. Bc2 Nc6
8. Rc1 Bf7 9. Bb3 O-O 10. Bxf7+ Nxf7 11. e4 e6 12. Ne3 a6 13. Bf2 Nfe5 14.
Nd3 Nxd3 15. Qxd3 b5 16. Qd2 Qb7 17. O-O Bf4 18. Bg3 Bxg3 19. hxg3 Rac8 20.
Ng4 Ne7 21. Qg5 Ng6 22. Rxc8 Rxc8 23. Rd1 Rc2 24. Qd8+ Nf8 25. Kh2 Rc5 26.
Rd6 b4 27. Rb6 Qa7 28. e5 Rc8 29. Qe7 Ng6 30. Qxb4 h5 31. Rb7 Qc5 32. Qe4
hxg4 33. Qxg6 Qd5 34. Rb3 gxf3 35. Rxf3 Rf8 36. Rd3 Qxe5 37. Rxd7 Rf5 38.
Rd8+ Rf8 39. Rd7 Rf5 40. Rd8+ Rf8 41. Rxf8+ Kxf8 42. b4 Qe2 43. a4 Qa2 44.
a5 Qc4 45. Qb1 Kg8 46. Qe1 Kh7 47. Qe3 Qxb4 48. Qd3+ g6 49. Qxa6 Qc5 50.
Qb6 Qh5+ 51. Kg1 Qd1+ 52. Kf2 Qd2+ 53. Kf3 g5 54. Qxe6 Qxa5 55. Kg4 Qa8 56.
Qf7+ Kh8 57. Qh5+ Kg7 58. Qxg5+ Kh8 59. Kh3 Qa1 60. Qd8+ Kg7 61. Qe7+ Kg8
62. g4 Qc3+ 63. Kh4 Qb2 64. Qe8+ Kg7 65. Qd7+ Kg6 66. Qd6+ Kg7 67. Qd5 Kg6
68. Qg8+ 1-0

[Event "Fischer Random Rapid 2018"]
[Site "Baerum NOR"]
[Date "2018.02.11"]
[Round "5"]
[White "Carlsen, Magnus"]
[Black "Nakamura, Hikaru"]
[Result "0-1"]
[Annotator "DF"]
[EventDate "2018.02.09"]
[Variant "chess 960"]
[SetUp "1"]
[FEN "nqbnrbkr/pppppppp/8/8/8/8/PPPPPPPP/NQBNRBKR w HEhe - 0 1"]
[PlyCount "98"]
[EventType "rapid"]
[Source "ChessPublishing"]
[SourceDate "2015.08.21"]

1. d4 d5 2. Nb3 e5 3. dxe5 Rxe5 4. Bf4 Re8 5. Nc3 Bb4 6. Bd2 Nb6 7. e4 Bxc3
8. Bxc3 dxe4 9. Qd1 f5 10. Qd4 Ne6 11. Qe5 O-O 12. Nc5 Re7 13. Rd1 Rff7 14.
Be2 Nf8 15. Qf4 Ng6 16. Qg3 f4 17. Rd8+ Rf8 18. Rxf8+ Kxf8 19. Qg5 c6 20.
h4 f3 21. gxf3 Nf4 22. Bf1 exf3 23. Nd3 Nxd3 24. Bxd3 h6 25. Qg3 Qxg3+ 26.
fxg3 Na4 27. Bd2 Kg8 28. b3 Nb2 29. Bg6 Nd1 30. O-O Bg4 31. Bd3 f2+ 32. Kg2
b5 33. a4 a6 34. axb5 axb5 35. Bb4 Re5 36. Bd2 Re8 37. Bf4 b4 38. Bd2 c5
39. Bf4 Kf7 40. Bd6 Ne3+ 41. Kxf2 Nxf1 42. Bxf1 Rc8 43. Be5 Bf5 44. Bc4+
Kg6 45. Ke3 Bxc2 46. g4 Re8 47. Kf4 Rf8+ 48. Ke3 Re8 49. Kf4 Rd8 0-1

[Event "Fischer Random Rapid 2018"]
[Site "Baerum NOR"]
[Date "2018.02.11"]
[Round "6"]
[White "Nakamura, Hikaru"]
[Black "Carlsen, Magnus"]
[Result "0-1"]
[Annotator "DF"]
[EventDate "2018.02.09"]
[Variant "chess 960"]
[SetUp "1"]
[FEN "nqbnrbkr/pppppppp/8/8/8/8/PPPPPPPP/NQBNRBKR w HEhe - 0 1"]
[PlyCount "78"]
[EventType "rapid"]
[Source "ChessPublishing"]
[SourceDate "2015.08.21"]

1. e4 e5 2. Nb3 c5 3. Ne3 Nc6 4. h4 h5 5. g3 b5 6. d3 d6 7. Bg2 Be6 8. f4
exf4 9. gxf4 Nb6 10. c3 c4 11. Nd4 Nxd4 12. cxd4 Be7 13. d5 Bd7 14. d4 Qd8
15. Bd2 Bxh4 16. Rf1 Bg3 17. e5 h4 18. Rf3 Bc8 19. Nf1 Bg4 20. Ra3 b4 21.
Rxa7 Qb8 22. Ra6 Qb7 23. Nxg3 Qxa6 24. Ne4 c3 25. bxc3 Nc4 26. Bf1 Nxd2 27.
Nxd2 Qc8 28. Rh2 bxc3 29. Nc4 Bf3 30. Ne3 dxe5 31. fxe5 Qd8 32. Qf5 Bxd5
33. Qf4 Be6 34. Bh3 Rh6 35. Bxe6 fxe6 36. Ng4 Rg6 37. Rg2 Rf8 38. Qe4 Rf5
39. Nf6+ Rfxf6 0-1

[Event "Fischer Random Rapid 2018"]
[Site "Baerum NOR"]
[Date "2018.02.12"]
[Round "7"]
[White "Nakamura, Hikaru"]
[Black "Carlsen, Magnus"]
[Result "0-1"]
[Annotator "DF"]
[EventDate "2018.02.09"]
[Variant "chess 960"]
[SetUp "1"]
[FEN "rnknqbbr/pppppppp/8/8/8/8/PPPPPPPP/RNKNQBBR w HAha - 0 1"]
[PlyCount "92"]
[EventType "rapid"]
[Source "ChessPublishing"]
[SourceDate "2015.08.21"]

1. f4 f6 2. e4 e5 3. fxe5 fxe5 4. Nbc3 Ne6 5. Nd5 c6 6. N5e3 d6 7. g3 Nd7
8. Bh3 O-O-O 9. d3 Kb8 10. Qf2 Ndc5 11. Nc3 Nd4 12. Ne2 Nxe2+ 13. Qxe2 d5
14. exd5 cxd5 15. Ng4 d4 16. Bg2 Bd6 17. h3 Rc8 18. Bf2 h5 19. Nh2 e4 20.
O-O e3 21. Be1 Ne6 22. Nf3 g5 23. c3 g4 24. Nxd4 Nxd4 25. cxd4 gxh3 26. Be4
h4 27. Qxe3 Bh7 28. Rf3 Qh5 29. Bf2 Rhf8 30. Rxf8 Rxf8 31. Bxh7 Qxh7 32. g4
h2+ 33. Kh1 Qg8 34. Bxh4 Qxg4 35. Bf2 Qg8 36. Bh4 Qd5+ 37. Qe4 Qf7 38. Qg2
Qf4 39. Bg5 Qxd4 40. Bh6 Re8 41. Rd1 Qxd3 42. Rf1 Ka8 43. Rc1 Bb8 44. Qd2
Qe4+ 45. Qg2 Qe1+ 46. Qf1 Qe6 0-1

[Event "Fischer Random Rapid 2018"]
[Site "Baerum NOR"]
[Date "2018.02.12"]
[Round "8"]
[White "Carlsen, Magnus"]
[Black "Nakamura, Hikaru"]
[Result "0-1"]
[Annotator "DF"]
[EventDate "2018.02.09"]
[Variant "chess 960"]
[SetUp "1"]
[FEN "rnknqbbr/pppppppp/8/8/8/8/PPPPPPPP/RNKNQBBR w HAha - 0 1"]
[PlyCount "238"]
[EventType "rapid"]
[Source "ChessPublishing"]
[SourceDate "2015.08.21"]

1. d4 f5 2. f4 g5 3. fxg5 h6 4. Ndc3 d5 5. g4 fxg4 6. e4 dxe4 7. Nd2 hxg5
8. O-O-O Nd7 9. Ndxe4 Nf7 10. d5 a6 11. Bd4 Rh6 12. Be2 Nfe5 13. Nxg5 Rg6
14. Ne6 Bxe6 15. dxe6 Rxe6 16. Bxe5 Rxe5 17. Qg3 Bh6+ 18. Kb1 Re3 19. Qxg4
O-O-O 20. Nd5 Re5 21. Bxa6 c6 22. Nb6+ Kc7 23. Nxd7 Rxd7 24. Rxd7+ Qxd7 25.
Qxd7+ Kxd7 26. Bxb7 Ra5 27. Re1 Bg5 28. Rg1 Bf6 29. Rg8 Rb5 30. Bc8+ Kc7
31. b3 Re5 32. Kc1 Re2 33. h3 e6 34. Ba6 Re3 35. Kd2 Rxh3 36. Bd3 Rh2+ 37.
Ke3 Bc3 38. a4 Kd6 39. Rg6 Rh3+ 40. Ke4 Rh4+ 41. Kf3 Rh3+ 42. Kg2 Rh7 43.
Rg4 Rg7 44. Bg6 c5 45. Kf3 Ba5 46. Ke2 c4 47. Rd4+ Ke7 48. Be4 cxb3 49.
cxb3 Rg3 50. Bf3 Rg1 51. b4 Bc7 52. Rc4 Bd6 53. Be4 Rg3 54. Kd2 Rb3 55. b5
Be5 56. Bc2 Rb2 57. Rc6 Kd7 58. Ra6 Bd6 59. Kc3 Be5+ 60. Kd3 Bf4 61. a5 Bc7
62. Ra7 Kd6 63. Ra6+ Kd7 64. b6 Bxb6 65. axb6 Kc6 66. Ba4+ Kb7 67. Ra7+
Kxb6 68. Re7 Kc5 69. Rxe6 Rb4 70. Bc2 Rd4+ 71. Ke3 Rd8 72. Be4 Rd6 73. Re5+
Kb6 74. Bd5 Kc5 75. Ke4 Rd8 76. Bf7+ Kc6 77. Rh5 Rd1 78. Bb3 Rd2 79. Bd5+
Kc5 80. Bf7+ Kc6 81. Bb3 Kd6 82. Ke3 Rb2 83. Bc4 Rg2 84. Bd3 Rg1 85. Kd4
Rd1 86. Rh6+ Ke7 87. Ra6 Kd7 88. Ke4 Ke7 89. Bc4 Rd6 90. Ra7+ Rd7 91. Ra5
Rd1 92. Ke5 Re1+ 93. Kd4 Rd1+ 94. Bd3 Kd6 95. Ra6+ Ke7 96. Ke4 Rd2 97. Ke3
Rd1 98. Ke4 Rd2 99. Bc4 Rd6 100. Ra5 Rd1 101. Ke5 Re1+ 102. Kd5 Rd1+ 103.
Kc5 Kf6 104. Ra6+ Kf5 105. Re6 Rc1 106. Re2 Rd1 107. Bb3 Rd8 108. Bc2+ Kf4
109. Re4+ Kf3 110. Rc4 Rf8 111. Kb4 Ke2 112. Kc3 Ke3 113. Re4+ Kf3 114. Rd4
Rc8+ 115. Rc4 Re8 116. Rb4 Re3+ 117. Kb2 Re2 118. Rb3+ Kf2 119. Rc3 Re7 0-1

